…
The default `return_type = 'final'` gives the best outcome of each
random start, for the best `num_best_results`. If we want the full steps
of each of the `num_random_starts`, set `return_type = 'steps'`. This
can also be returned as a list, if `returndf = FALSE`.

``` r
bv_steps <- bv_multi(ref_mat = varespec, comp_mat = varespec,
                   ref_dist = 'bray', comp_dist = 'bray',
                 rho_threshold = 0.95,
                 return_type = 'steps',
                   rand_start = TRUE, nrand = 5, num_restarts = 10)
bv_steps
#> # A tibble: 78 × 6
#>    random_start  step FB    num_vars  corr species                              
#>    <chr>        <dbl> <chr>    <int> <dbl> <chr>                                
#>  1 1                1 <NA>         5 0.484 Betupube, Cetrisla, Cladarbu, Cladra…
#>  2 1                2 F            6 0.682 Betupube, Cetrisla, Cladarbu, Cladra…
#>  3 1                3 F            7 0.769 Betupube, Cetrisla, Cladarbu, Cladra…
#>  4 1                4 F            8 0.834 Betupube, Cetrisla, Cladarbu, Cladra…
#>  5 1                5 B            7 0.834 Betupube, Cladarbu, Cladrang, Cladst…
#>  6 1                6 F            8 0.856 Betupube, Cladarbu, Cladrang, Cladst…
#>  7 1                7 F            9 0.880 Betupube, Cladarbu, Cladrang, Cladst…
#>  8 1                8 B            8 0.880 Betupube, Cladarbu, Cladrang, Cladst…
#>  9 1                9 F            9 0.900 Betupube, Cladarbu, Cladrang, Cladst…
#> 10 1               10 F           10 0.920 Betupube, Cladarbu, Cladrang, Cladst…
#> # ℹ 68 more rows
```
…
